﻿name,long_name,category,date_start,date_end,date_reserve,interest,level,description_length,description,links
Computational Life Sciences,,data viz,01/01/2001,01/09/2015,,2,5,356,"Life sciences, and more particularly proteomics, is a domain where I pushed visualization the furthest. The problem are intrinsically complex, with vast amount of data and were a clear truth seldom emerge. 
Collaboration with world class researchers and talentuous software developers allowed innovation on the technical side, but also on the methodology.",https://www.researchgate.net/publication/272297066_Mass_Spectrometric_Quantification_of_Histone_Post-translational_Modifications_by_a_Hybrid_Chemical_Labeling_Method; Mass Spectrometric Quantification of Histone Post-translational Modifications by a Hybrid Chemical Labeling Method
Exploration Tools,,data viz,01/01/2001,01/03/2015,,5,4,356,"If data visualization can be a powerful medium for communication, it can also change the life of analysts or scientists.
The goal is to build exploration tools to remove the complication of actual data navigation and reveal nothing but the underlying complexity.
I have had the privilege to participate in a few such game changing projects.","http://research-pub.gene.com/fishtones-js/howto/;fishTones.js
http://research-pub.gene.com/pviz/examples/;pViz.js
https://www.slideshare.net/neotrinity2048/afterwork-big-data-et-data-viz-du-lac-votre-cran;Afterwork big data et data viz - du lac à votre écran"
Dabshboards,,data viz,01/03/2016,01/12/2017,,3,3,229,"Between fully custom visualization (JavaScript/d3) and static reports (R/knitr) lies a series of powerful dasbhoarding tools.
If I had most development experience with Kibana, but Tableau and Grafana are definitely part of my toolbox.","https://portal.klewel.com/watch/webcast/elastic-search-march-2017/talk/2;Building and deploying Kibana plugins ... And should I do it?;
https://blog.octo.com/en/a-journey-into-industrializing-the-writing-and-deployment-of-kibana-plugins-riding-docker/;A Journey into Industrializing the Writing and Deployment of Kibana Plugins (riding Docker)"
History & Theory,,data viz,01/06/2013,30/8/2019,,4,2,,"<span class=""quote"">""The only new thing in the world is the history you don't know"" -  Harry S. Truman</span> 
Studying data visualization, browsing through the past 250 years and leveraging on research published by major authors is an addictive journey. 
Applying this knowledge to modern tools and actual projects is even more exciting.",
Graphs,,data viz,01/06/2013,01/09/2015,,4,3,162,"If graph are everywhere, there are often complex for the human brain to comprehend. For either rich or voluminous data set, different techniques are to be used for navigating.",http://alexandre-masselot.blogspot.com/2014/05/viewing-graphs-in-browser.html;Viewing graphs in the browser
High Performance,,data viz,01/06/2012,30/8/2019,,1,4,218,"There are so many pixels on your screen, so much bandwidth on your network connection and so much information one's brain can process. Various techniques, both on the back and front ends, must be put in place to handle large amounts of data.","https://blog.octo.com/en/d3-js-transitions-killed-my-cpu-a-d3-js-pixi-js-comparison/;D3.js transitions killed my CPU! A d3.js & pixi.js comparison
https://blog.octo.com/en/visualizing-massive-data-streams-a-public-transport-use-case/;Visualizing massive data streams: a public transport use case"
Maps  & RT,,data viz,01/09/2015,30/8/2019,,4,2,230,"Map are a natural ground for visualization and classic GIS are not the only solution. I covered various aspects, from researchers collaborations, to archeological information and real time mapping of public transports.","https://www.youtube.com/watch?v=yTigmCL68uw;Swiss Transport in Real Time: Tribulations in the Big Data Stack (VoxxedDay - Z√ºrich)
https://blog.octo.com/en/visualizing-massive-data-streams-a-public-transport-use-case/;Visualizing massive data streams: a public transport use case
https://blog.octo.com/en/geo-localizing-medline-citations/;Where are the scientific publications coming from? Geolocalizing Medline citations"
Physics Models,,data viz,01/06/1995,01/03/2000,,1,4,232,"My Ph.D. period exposed me to various numerical models, and therefore offered a fertile ground for visualization. I could apply a vast range of techniques, from real time rendering, to 3D software, slides injection and even mechanical setups.",https://journals.aps.org/prl/abstract/10.1103/PhysRevLett.81.1845;Multiparticle lattice gas model for a fluid: application to ballistic annihilation
Notebooks,,data viz,01/09/2010,30/8/2019,,4,4,0,"Producing a graphic is a matter of data, transformation and layout. Too often is this production buried on hard drives, emails and vague reminiscences.
Notebooks do exists to gather all this information together.
If the usage picks up among the scientific community, notebooks are certainly the most ubiquitous tools (beside Powerpoint) in my consultant position at OCTO Technology.",https://observablehq.com/@alexmasselot/;A few ObservableHQ notebooks
Software Craftsmanship,,data viz,01/09/2013,30/8/2019,,3,4,77,"Crafting software is generally accepted as being sound development practice.
In the data visualization field, it is less admitted. Partly because of  developers background and partly  because of the challenges inherent complexity, such as  reusability or visual component testing. ",
Classification Models,,domain,01/06/2000,01/06/2005,,3,2,23,"Building a model to sort interesting signals out of the noise is a Graal in some domains. Before powerful methods were to be democratized by TensorFlow and MLib (among others), we had to devize our own with SVM, Hidden Markov etc.
In the end, some of those models did had a huge impact on the company efficiency.","https://onlinelibrary.wiley.com/doi/abs/10.1002/pmic.200300708;High‐performance peptide identification by tandem mass spectrometry allows reliable automatic data processing in proteomics
https://onlinelibrary.wiley.com/doi/abs/10.1002/pmic.200300485;OLAV: Towards high‐throughput tandem mass spectrometry data identification"
Graphs,,domain,01/01/2008,01/09/2015,,3,4,36,"(Graph)-[:are]->(Everywhere), says the ad. They are, indeed. 
And they propose original ways to tackle problem into our organizations, from cross experiment relations to a supply chain overview. 
Powerful tools can be set in action (Neo4j, Jung, GraphX etc.), but the real power is revealed when stakeholders start to view at their world from another perspective.",
High Performance Computing,,domain,01/06/1995,01/03/2003,,3,5,47,"From my Ph.D. in a HPC group to handling the largest private cluster in Europe (1600 nodes at GeneProt, in 2000), I had plenty of opportunities to implement algorithms on a vast variety of powerful beasts. Fortunately enough, those heroic times are over and we can nowadays rely on frameworks to hide low level intricacy.",https://archive-ouverte.unige.ch/unige:16909;A new numerical approach to snow transport and deposition by wind: a parallel lattice gas model
History,,domain,01/01/2015,30/8/2019,,4,2,53,"Dazzled by novelties, living in  a world where yesterday revolution is old news, we tend to forget lessons learned from the past. 
Looking backwards to the giant on whom we step is a constant source of inspiration.",
Num. Models,Numerical Models,domain,01/06/1995,01/03/2000,,2,4,62,"If my main topic of research was modeling snow transport by wind, I had the opportunity to pursue rich collaborations, in theoretical physics (ballistic annihilation) or sociology.","https://iopscience.iop.org/article/10.1209/epl/i1998-00239-3/meta;A lattice Boltzmann model for particle transport and deposition
https://www.researchgate.net/profile/Alexandre_Dupuis/publication/23551347_Cellular_Automata_and_Lattice_Boltzmann_Techniques_An_Approach_to_Model_and_Simulate_Complex_Systems/links/0f31753479724e6a3e000000.pdf;Cellular Automata and Lattice Boltzmann Techniques: An Approach to Model and Simulate Complex Systems"
Text Searching,,domain,01/01/2010,01/03/2012,,2,3,0,"More than actually programming, searching text is a mix of using Lucene (one of the best ever written pieces of open source software) and meeting actual user needs. The challenge lies in sustaining performance while assuming usability tradeoffs.",
Democratic Org.,Democratic Organization,management+lead,01/09/2015,30/8/2019,,4,4,4,"Recruiting talentuous senior people, or growing junior ones to follow their footsteps does not correlate strongly with rigid hierarchy and incomprehensible processes. I was fortunate enough, at GeneBio and OCTO, to live some radical experiments in terms of distributed decision process or transparency. I have also witnessed larger organizations with appealing HR strategies.
Asking for feedback, engaging team members in crucial decisions, admiting failures is not always a way to avoid leading. This is simply another way.",
Management & Strategy,,management+lead,01/05/2003,30/8/2019,,3,4,54,"Since 2002, I have held management positions with small or larger team and have tried to instill some special spirit among my crews (with sometimes  failures). Working in small companies, I have also played an active role in the executive team.",http://alexandre-masselot.blogspot.com/2011/08/20-of-blue-sky-thining.html;20% of blue sky: Motivating software developers in a scientific research environment...  and getting benefit from it
Mountain Troop Instructor,,management+lead,01/11/1996,01/09/1997,02.01.05,3,1,0,"Ten months of duty brought me in the French Army Mountains Troops, at a moment where I was older than most junior officers, while carrying a loaded enough track of montaineering achievements.
Beside cultivating myself in the psychology of leadership (through observation), I had a position of mountain instructor. I then had the opportunity to spend time with Special Forces soldiers and discover other form of organizations, surprisingly close to the ideal of an Agile team.",
Psychology,,management+lead,01/01/2010,30/8/2019,,3,2,62,"<span class=""quote"">""No matter how it looks at first, it's always a people problem"" -  Gerald Weinberg</span>
When developing a product, transforming an Information System (or skiing across the Arctic), technical skills are requirements. They can most often be learned.
The real challenges, in leadership, negotiation, decision making, come with human interactions. An endless world, often disregarded in techno-driven organizations.",http://alexandre-masselot.blogspot.com/2011/08/problem-solving-low-scale-decision.html;Problem solving & low scale decision process
Recruitment,,management+lead,01/03/2000,30/8/2019,,4,2,,"One way of growing a team power is through intrinsic development. The other is of course through recruitment. As Roald Amudsen wrote: ""the wrong companion is worst that the worst blizzard"", and signing in an ill-suited team member can have serious consequences.
I had the privilege to work in organizations (small or large) where those matters were serously taken into consideration and original solutions implemented, to find the best, seduce them and try to fight our own cognitive biases. ",https://blog.octo.com/le-recrutement-chez-octo-suisse-there-is-a-better-way/;Le recrutement chez OCTO Suisse : there is a better way
Technology Evangelist,,management+lead,01/05/2012,30/8/2019,,3,4,17,"In a fast moving technical field, knowledge is constantly evolving. One cannot keep up alone and the surest way not to drown is to share the knowledge.
I have been the organizer or active participant of various forms of gatherings, from tech forum, Brown Bag Lunches to conferences and meetups.",
Unsupported Polar Ski Expeditions,,management+lead,01/06/1995,01/04/2004,,5,3,0,"Ten years of unsupported polar expeditions profoundly shaped my approach to team working. From risk management to decision making, from tool selection to the acknowledgement of failure, from history to first hand experience, the applications in my daily life are countless.","http://www.framexpeditions.com; Our (vintage) web site
https://blog.octo.com/en/polar-expeditions-and-agility-the-1911-race-to-the-south-pole-and-modern-tales/;[blog post] Polar Expeditions and Agility: The 1911 Race to the South Pole and Modern Tales
https://www.slideshare.net/OCTOTechnologySuisse/polar-expeditions-and-agility-the-1910-race-to-the-south-pole-and-modern-tales;[slides] Polar Expeditions and Agility: The 1911 Race to the South Pole and Modern Tales"
Agile/Lean in Research,,methodo,01/06/2010,01/06/2015,01.01.17,4,4,0,"Lean is sometimes associated  <em>""think as a scientist.""</em>
However, scientific software development seldom follow a lean or agile approach. The intrinsinc uncertainty about the future, the impossibility to foresee blockers or successes makes Agile methodology perfectly suited for that world.
But it to work,it does not of course only require a few tools, but deeper organization changes.","http://alexandre-masselot.blogspot.com/2015/01/bioinformatics-in-lab-putting-yearly.html;Bioinformatics in the Lab: Putting a Yearly Plan Together
http://alexandre-masselot.blogspot.com/2011/08/creating-scientific-bioinformatics.html;Creating scientific (bioinformatics) software: going Agile?"
Automated Testing,,methodo,01/06/2012,30/8/2019,,3,4,0,"Automated testing is a crucial step to master in order to sustain a steady product development pace. From unit to performance and chaos, it can cover many aspects and must deserve special attention.",https://blog.octo.com/en/end-to-end-testing-from-the-trenches-with-protractor/;End to end testing from the trenches with Protractor
DevOps,,methodo,01/09/2014,30/8/2019,,3,3,0,"DevOps is one of the hottest buzzword of the moment. But buzzword sometimes have their good side.
On the technical side, it pushes projects towards the use of sound tools such as Liquibase, thorough testing, Continuous development.
On the architecture side, it promotes sounds decoupling and reactive compliance.
But mainly, on the organization side, it helps break the barrier between development and operation.
I see it as the technical companion to agility, finally linking users needs, development and deployment under a consistent umbrella.","https://www.octo.com/fr/evenements/179-devops-c-est-arrive-pres-de-chez-vous;DevOps, c'est arrivé prêt de chez vous
https://www.slideshare.net/OCTOTechnologySuisse/an-afterwork-on-microservices-by-octo-technology-switzerland-103587190;An afterwork on Microservices by @OCTO Technology Switzerlandhttp://alexandre-masselot.blogspot.com/2014/10/embracing-technology-change-in.html;Embracing Technology Change In Scientific Software"
Hero Model,,methodo,01/03/2000,01/01/2014,,1,5,,"Too often our organizations rely on the lone hero to save the deadline.
If the day might be saved, some ego boosted, the toll is too high when we consider quality and sustainability.
Those observations come from first hand experience, when I played more than once the role of the so called ""hero.""",
Lean,,methodo,01/09/2015,30/8/2019,,5,4,0,"I have learned how Lean is not only a methodology, a set of recipes (<em>e.g.</.em> Kanban, SCRUM, Scrumban, SAFe) to be applied, or even worse, a list of certification badges to clutter resumes. 
Mastering the tools is essential, but the real power comes from the intrinsic values of this philosophy: the relentless quest for improving, limiting wastes, delivering better outcomes in a smoother fashion.",
Lean UX,,methodo,01/01/2010,30/8/2019,,3,4,0,"When Agile cycles are only applied at the software development teams level, the risk is to build a well oiled feature factory. The next maturity level is reached when the UX cycles becomes embedded in short feedback loops.
Interviewing, sketching, developing, testing, deploying finally become a smooth process.
I have played role at each of those stages, either first hand of coordinating team efforts.",
Offshoring.ch,Offshoring (from Switzerland),methodo,01/05/2018,30/8/2019,,3,4,,"Offshoring is usually primarly motivated by short term cost reduction, but long time furstration is often met down the line.
I have been involved in two projects with cutting edge US companies, where they offshored the software development to us, in Switzerland.
Driving the project in a commited agile fashion, working on par with our customer made me define new grounds for high quality offshoring. And those projects were occasions to meet exciting goals.",
Product Ownership,,methodo,01/09/2015,30/8/2019,,3,4,15,"The Product Owner is often disregarded or over considered. She is however the cornerstone between delivery teams, users and company strategy.
I had the occasion to hold this position, but also to teach or coach product owners, as well as the other stakeholders (upper management, developers), demonstrating how a real product owner is both the symbol and the catalyst of an Agile transformation.
Amon my greatest achievements as a consultant, where those moments when my custtomers finally realized how ""Product Owner"" was not simply ""yet another role to put on a organization chart.""",
Academic Assistant,,teaching,01/06/1995,01/03/2000,,2,3,0,"Part of being a Ph.D. student is also serving as assistant. I therefore organized practical sessions within my own group (High Performance Computing).
Having one foot in Maths and one in Computer Sciences, I have also participated in shaping programs to open computer science students heart to the beauty of mathematics.",
Data Science for Biologists,,teaching,01/02/2005,01/06/2011,,4,3,59,"Genebio was a company founded by a group of professors and I had close links with University of Geneva. I was proposed, during 6 years, to give a one semester class for biologists, to introduce them to programming and statistics during their master.",
MBI,,teaching,15/10/2017,30/8/2019,,2,4,61,"OCTO Technology shaped a master in Business Innovation together with CREA, in Geneva. I have therefore participated in building a 60 days program, spread over 18 months, and delivered the Lean Startup module.",https://www.creageneve.com/en/mba/entrepreneurship-innovation/;MBA Entrepreneurship & Innovation
Various Trainings,,teaching,01/10/2015,30/8/2019,,5,4,,"An important part of an OCTO consultant is to help people grow inside IT organizations. One mean to acheive this goal is through teaching.
I have had the pleasure to shape a new course on data visualization with the University of Geneva, but also to deliver several courses from the OCTO Academy catalog: Product Owner, Kaban, Agile, Software craftsmanship.","https://cui.unige.ch/fr/formations/formation-continue/seminaire-data-visualisation/;Séminaire Visualisation des données / Data Visualisation
https://www.octo.academy/fr/formation/219-devenir-product-owner;Devenir Product Owner
https://www.octo.academy/fr/formation/222-kanban-mieux-travailler-en-maitrisant-son-flux-de-production;Kanban : mieux travailler en maitrisant son flux de production
https://www.octo.academy/fr/formation/204-clean-code;Clean Code"
Ph.D. & Master mentoring,,teaching,01/09/2006,01/06/2011,,4,3,45,"Teaching and working hand in hand with University of Geneva, I had the opportunity to mentor  students during their master theses.
On the longer run, I have also directed three Ph.D. students in computational mass spectrometry.","https://archive-ouverte.unige.ch/unige:9839;LC-MSMS identification of small molecules; X-Rank, a robust library search algorithm
https://archive-ouverte.unige.ch/unige:8579;LC-MSMS identification of small molecules: SmileMS, a small molecule identification platform applied to clinical toxicology"
CI/CD,,techno,01/01/2010,30/8/2019,,3,4,33,"Automated testing and continuous deployment plumbing are often judged not as exciting as writing code (some organizations would even delegate those tasks to lower level employees). However, as for any craftsman, they are part of the toolbox and should also be mastered.
Fortunately, many tools have risen to make the transition from IDE to deployment much easier. Almost no language nor frameworks (from R & Perl to Koltin, Typescript and Go) cannot be tackled by the toolbox provided by Hudson/Jenkins, Gitlab CI etc.",http://alexandre-masselot.blogspot.com/2012/08/continuous-deployment-in-perl-code-folks.html;Continuous Deployment in Perl: Code & Folks
NoSQL,,techno,01/06/2012,30/8/2019,,3,2,23,"Relational Database Models meets many needs. However, when volume, speed, lack of structure kick in, other tool must be pulled out of the box.
For various projects, I could benefit of tools such as MongoDB, CouchDB, Neo4J, Kafka etc.",
Reactive programming,,techno,01/06/2012,30/8/2019,,3,2,0,"Reactive programming covers many ground: from the manifesto implementation to new patterns for delivering huge amount of data on demand.
In some projects, applying the right patterns has been a sure route for a serene growth and a happy user experience.",
C++,,techno,01/03/2000,01/01/2010,,1,2,0,"In the early 2000s, Fortran and C were natural choices to deliver high performance computing 
When facing the development of complex numerical models on a data intensive application (mass spectrometry analysis over 1600 nodes), C++ provided a richer language. 
It was definitely not the best designed piece of software I have ever written, but it did meet the job.",
D3.js,,techno,01/06/2013,30/8/2019,,4,4,0,"When data visualization must be rendered in the browser, D3.js library is the most versatile tool available. It implements the Grammar of Graphics (Leland Wilkinson) and virtually set no limits upon what can be designed.
For simple graphics up to complex exploration tools, I have had to benefit from the power and the insiration unleashed by Mike Bostck and his peers.",
Docker & co,Docker Ecosystem,techno,15/12/2016,30/8/2019,,2,3,23,"Virtualization (vmware, vserve) has transformed the life of Infrastructure people. But the recent popularity of containerization brought new paradigms to developers.
From simple Docker container, to docker-compose set or full blown Kubernetes layout, efficiency has been dramatically increase and the barrier between development and operations even more blurred.",https://www.slideshare.net/alexmass;Swiss Transport in Real Time: Tribulations in the Big Data Stack
Fortran,,techno,01/06/1995,01/03/2000,,1,5,0,"Fortran is a niche language, but it does deliver robust performance and benefit from a high quality library stack.
Although it seldom makes its way into any industry, I must recognize how it has been the only language I was seriously trained on during ten years at University. Beside nostalgy, It brought me an acute sense of how to optimize resources and deliver performance.",
JavaScript World,,techno,01/01/2000,30/8/2019,,3,4,96,"The browser is the surest platform to bring data to a user. During those years, I have participated in many projects, following development from raw JavaScript, to Jquery, BackboneJS, AngularJS and more modern frameworks such as React and Angular, powered with Typescript.
JavaScript, the language everyone loves to hate, but the gate to many realizations.",http://alexandre-masselot.blogspot.com/2012/12/sustainable-javascript.html;Sustainable JavaScript
JVM Stack,,techno,01/01/2005,30/8/2019,,3,4,20,"The Java Virtual Machine has been a layer for many backend solid realization. If good ol'days are not to be missed, I have contributed to projects built on Groovy & Grails, on Scala & Pla, and more recently with Kotlin & SpringBoot.",
MPI,,techno,01/06/1995,01/03/2005,,1,5,0,"To build distributed high performance applications, MPI was (and still is in some cases) the most prevalent solution.
Nowadays, actor driven architecture, with Akka, have raised distribution to another level of comfort and power.",
Perl,,techno,01/03/2000,01/06/2012,,3,4,58,"Perl is one of those languages that fuel passion among developers: hate, fear and disdain for some, or joy and freedom for others.
I for sure fell in the second category, inspired by the spirit seeded by its creator, Larry Wall.
But to sustain large scale projects, I had to call for good craftsmanship practices, such as testing and continuous integration.
And I live with a cat named Perl...","http://bit.ly/cicd-perl;Continuous Deployment in Perl: Code & Folks
http://alexandre-masselot.blogspot.com/2011/12/perl-hudson-continuous-testing.html;Perl & Hudson: continuous testing & deployment
https://pubs.acs.org/doi/abs/10.1021/pr0504236;InSilicoSpectro: An Open-Source Proteomics Library
https://metacpan.org/author/ALEXMASS;CPAN"
R,,techno,01/01/2008,30/8/2019,,3,4,0,"If R is often disregarded by ""real"" software developers, its strenght does not lie in some purity of the language itself. It is to be found by the elegance of the power of the statistics models and the versatile graphic library.
As a consultant at OCTO, I came to realize that 90% of my mission call for some R, for the analysis and the communication of the gathered data.",
Scala,,techno,01/06/2012,01/09/2016,,5,3,0,"Scala is my opinion the most impressive general purpose language of this generation. It allies beautiful concepts (such as the marriage of object orientation and functional paradigms) together with efficiency.
However, I also came to witness how the lack of adoption certainly get it roots in the efforts to be undertaken to start mastering it.",http://alexandre-masselot.blogspot.com/2013/08/scala-6-silver-bullets.html;Scala: 6 silver bullets
Spark,,techno,01/06/2012,01/09/2015,,3,1,0,"If I cannot claim to have a deep experience in Spark, I have used it enough to grasp the power and the elegance of the framework. I offers a powerful abstraction layer above Hadoop, streaming, machine learning and graph computations.",
Go,,techno,01/09/2018,30/8/2019,,3,2,,"Descendant of C, strongly opinionated, I had the pleasure to recently use that language for a couple of projects.",
